{
    "num_precios": 18,
    "fechas": [
        "01112019",
        "10112019",
        "11112019",
        "14112019",
        "16112019",
        "17112019",
        "18112019",
        "20112019",
        "21112019",
        "22112019",
        "23112019",
        "24112019",
        "27112019",
        "28112019",
        "04122019",
        "05122019",
        "10122019",
        "10022020"
    ],
    "productos": {
        "Merluza del Pa\u00eds Vasco": [
            7.55,
            "?",
            "?",
            "?",
            9.5,
            9.5,
            9.5,
            9.5,
            9.5,
            9.5,
            9.5,
            9.5,
            7.99,
            7.99,
            7.99,
            9.95,
            8.99,
            6.95
        ],
        "Merluza de pincho del Pa\u00eds Vasco": [
            15.9,
            15.9,
            16.5,
            "?",
            14.9,
            14.9,
            14.9,
            "?",
            15.99,
            13.99,
            13.99,
            13.99,
            "?",
            11.9,
            11.9,
            12.9,
            12.9,
            9.9
        ],
        "Lomo de at\u00fan Alakrana": [
            19.96,
            19.96,
            19.96,
            19.96,
            19.96,
            19.96,
            19.96,
            19.96,
            19.96,
            19.96,
            19.96,
            19.96,
            19.96,
            19.96,
            "?",
            "?",
            19.96,
            "?"
        ],
        "Merluza entera": [
            6.99,
            6.5,
            6.5,
            9.95,
            8.99,
            8.99,
            10.9,
            8.99,
            8.99,
            8.99,
            7.99,
            7.99,
            7.99,
            7.99,
            7.99,
            6.95,
            6.95,
            6.99
        ],
        "Lomo de merluza": [
            19.96,
            19.96,
            19.96,
            21.9,
            21.9,
            21.9,
            21.9,
            19.96,
            21.9,
            18.96,
            19.9,
            19.9,
            19.9,
            19.9,
            19.9,
            19.9,
            19.9,
            18.0
        ],
        "Cola de merluza": [
            15.99,
            15.99,
            15.99,
            12.9,
            12.9,
            12.9,
            12.9,
            12.9,
            16.99,
            16.99,
            16.99,
            16.99,
            15.99,
            12.95,
            12.95,
            15.99,
            15.99,
            "?"
        ],
        "Merluza de anzuelo": [
            7.95,
            11.95,
            11.95,
            12.95,
            12.95,
            12.95,
            12.95,
            12.95,
            12.95,
            12.95,
            8.95,
            8.95,
            9.95,
            9.95,
            8.95,
            8.95,
            9.95,
            8.99
        ],
        "Corvina EROSKI Natur GGN": [
            10.95,
            8.95,
            8.95,
            10.95,
            10.95,
            10.95,
            10.95,
            10.95,
            10.95,
            10.95,
            10.95,
            10.95,
            10.95,
            10.95,
            10.95,
            10.95,
            10.95,
            8.95
        ],
        "Lirio": [
            3.0,
            3.0,
            3.0,
            3.26,
            3.5,
            3.5,
            3.5,
            "?",
            3.5,
            3.5,
            3.0,
            3.0,
            3.5,
            3.5,
            4.0,
            4.0,
            3.56,
            5.0
        ],
        "Pescadilla del Cant\u00e1brico": [
            5.96,
            5.96,
            "?",
            "?",
            "?",
            "?",
            "?",
            "?",
            "?",
            "?",
            "?",
            "?",
            5.9,
            6.5,
            "?",
            "?",
            6.0,
            6.0
        ],
        "Chicharro blanco del Pa\u00eds Vasco": [
            5.56,
            5.56,
            5.56,
            "?",
            "?",
            "?",
            8.96,
            6.0,
            4.0,
            4.0,
            4.0,
            4.0,
            4.96,
            4.96,
            "?",
            4.0,
            6.0,
            7.96
        ],
        "Salmonete del Pa\u00eds Vasco": [
            9.0,
            9.0,
            9.0,
            9.96,
            9.96,
            9.96,
            9.96,
            9.96,
            9.96,
            9.96,
            9.96,
            9.96,
            9.96,
            10.9,
            10.0,
            10.0,
            10.0,
            16.0
        ],
        "Faneca del Pa\u00eds Vasco": [
            5.55,
            5.55,
            6.55,
            5.99,
            5.99,
            5.99,
            5.99,
            5.99,
            5.99,
            5.99,
            5.99,
            5.99,
            "?",
            "?",
            "?",
            "?",
            5.95,
            "?"
        ],
        "Anchoa mediana": [
            7.0,
            7.0,
            7.0,
            "?",
            "?",
            "?",
            "?",
            "?",
            8.0,
            6.96,
            6.96,
            6.96,
            6.96,
            5.9,
            6.96,
            6.96,
            "?",
            8.0
        ],
        "Chicharro grande": [
            6.55,
            "?",
            "?",
            "?",
            "?",
            "?",
            "?",
            "?",
            "?",
            "?",
            "?",
            "?",
            "?",
            "?",
            "?",
            "?",
            "?",
            8.98
        ],
        "Chicharro mediano": [
            5.5,
            5.5,
            5.5,
            "?",
            "?",
            "?",
            "?",
            "?",
            "?",
            "?",
            "?",
            "?",
            4.5,
            5.98,
            5.55,
            3.95,
            6.95,
            8.98
        ],
        "Salmonete": [
            9.9,
            6.9,
            6.9,
            9.0,
            9.96,
            9.96,
            9.96,
            7.9,
            9.96,
            9.96,
            "?",
            "?",
            9.96,
            9.96,
            8.5,
            8.5,
            7.5,
            "?"
        ],
        "Chicharrillo": [
            3.0,
            3.0,
            3.0,
            3.0,
            3.0,
            3.0,
            3.0,
            "?",
            3.0,
            3.0,
            3.0,
            3.0,
            3.0,
            3.0,
            3.0,
            3.0,
            3.0,
            2.5
        ],
        "Sardina grande": [
            3.96,
            "?",
            "?",
            "?",
            "?",
            "?",
            "?",
            "?",
            "?",
            "?",
            "?",
            "?",
            "?",
            4.6,
            4.9,
            4.9,
            4.9,
            4.56
        ],
        "Sardina-Parrocha": [
            5.0,
            6.0,
            6.0,
            7.9,
            7.9,
            7.9,
            7.9,
            7.9,
            6.0,
            6.0,
            5.0,
            5.0,
            5.96,
            5.96,
            7.56,
            4.96,
            5.96,
            "?"
        ],
        "Anchoa peque\u00f1a": [
            5.56,
            6.96,
            6.96,
            6.5,
            7.56,
            7.56,
            7.56,
            7.0,
            7.0,
            7.0,
            7.0,
            7.0,
            5.9,
            5.9,
            6.3,
            6.3,
            "?",
            "?"
        ],
        "Sardina-Parrocha importaci\u00f3n": [
            "?",
            "?",
            4.9,
            "?",
            "?",
            "?",
            "?",
            "?",
            "?",
            "?",
            "?",
            "?",
            "?",
            "?",
            "?",
            "?",
            "?",
            "?"
        ],
        "Pescadilla del Pa\u00eds Vasco": [
            "?",
            "?",
            8.9,
            7.96,
            "?",
            "?",
            "?",
            "?",
            "?",
            "?",
            "?",
            "?",
            "?",
            "?",
            "?",
            "?",
            "?",
            7.0
        ],
        "Verdel del Pa\u00eds Vasco": [
            6.55,
            "?",
            5.9,
            "?",
            "?",
            "?",
            "?",
            "?",
            "?",
            "?",
            "?",
            "?",
            "?",
            "?",
            "?",
            "?",
            5.9,
            "?"
        ],
        "Filetes de lirio": [
            "?",
            "?",
            "?",
            8.56,
            8.56,
            8.56,
            8.56,
            "?",
            "?",
            "?",
            "?",
            "?",
            8.56,
            8.56,
            8.56,
            8.56,
            8.56,
            "?"
        ],
        "Merluza de anzuelo entera": [
            "?",
            "?",
            "?",
            "?",
            14.9,
            14.9,
            14.9,
            "?",
            "?",
            "?",
            "?",
            "?",
            12.99,
            12.99,
            13.99,
            13.99,
            "?",
            13.99
        ],
        "Caballa-verdel grande": [
            "?",
            "?",
            "?",
            "?",
            "?",
            "?",
            "?",
            "?",
            "?",
            "?",
            6.55,
            6.55,
            "?",
            "?",
            6.55,
            6.55,
            "?",
            "?"
        ],
        "Caballa-Verdel": [
            "?",
            "?",
            "?",
            "?",
            "?",
            "?",
            "?",
            "?",
            "?",
            "?",
            "?",
            "?",
            "?",
            "?",
            3.91,
            4.99,
            "?",
            6.6
        ],
        "Pescadilla de azuelo del Cant\u00e1brico": [
            "?",
            "?",
            "?",
            "?",
            "?",
            "?",
            "?",
            "?",
            "?",
            "?",
            "?",
            "?",
            "?",
            "?",
            "?",
            "?",
            7.95,
            "?"
        ],
        "Sardina del Pa\u00eds Vasco": [
            "?",
            "?",
            "?",
            "?",
            "?",
            "?",
            "?",
            "?",
            "?",
            "?",
            "?",
            "?",
            "?",
            "?",
            "?",
            "?",
            "?",
            3.9
        ]
    }
}