fecha	Merluza del País Vasco	Merluza de pincho del País Vasco	Lomo de atún Alakrana	Merluza entera	Lomo de merluza	Cola de merluza	Merluza de anzuelo	Corvina EROSKI Natur GGN	Lirio	Pescadilla del Cantábrico	Chicharro blanco del País Vasco	Salmonete del País Vasco	Faneca del País Vasco	Anchoa mediana	Chicharro grande	Chicharro mediano	Salmonete	Chicharrillo	Sardina grande	Sardina-Parrocha	Anchoa pequeña	Sardina-Parrocha importación	Pescadilla del País Vasco	Verdel del País Vasco	Filetes de lirio	Merluza de anzuelo entera	Caballa-verdel grande	Caballa-Verdel	Pescadilla de azuelo del Cantábrico
01112019	7.55	15.9	19.96	6.99	19.96	15.99	7.95	10.95	3.0	5.96	5.56	9.0	5.55	7.0	6.55	5.5	9.9	3.0	3.96	5.0	5.56	?	?	6.55	?	?	?	?	?
10112019	?	15.9	19.96	6.5	19.96	15.99	11.95	8.95	3.0	5.96	5.56	9.0	5.55	7.0	?	5.5	6.9	3.0	?	6.0	6.96	?	?	?	?	?	?	?	?
11112019	?	16.5	19.96	6.5	19.96	15.99	11.95	8.95	3.0	?	5.56	9.0	6.55	7.0	?	5.5	6.9	3.0	?	6.0	6.96	4.9	8.9	5.9	?	?	?	?	?
14112019	?	?	19.96	9.95	21.9	12.9	12.95	10.95	3.26	?	?	9.96	5.99	?	?	?	9.0	3.0	?	7.9	6.5	?	7.96	?	8.56	?	?	?	?
16112019	9.5	14.9	19.96	8.99	21.9	12.9	12.95	10.95	3.5	?	?	9.96	5.99	?	?	?	9.96	3.0	?	7.9	7.56	?	?	?	8.56	14.9	?	?	?
17112019	9.5	14.9	19.96	8.99	21.9	12.9	12.95	10.95	3.5	?	?	9.96	5.99	?	?	?	9.96	3.0	?	7.9	7.56	?	?	?	8.56	14.9	?	?	?
18112019	9.5	14.9	19.96	10.9	21.9	12.9	12.95	10.95	3.5	?	8.96	9.96	5.99	?	?	?	9.96	3.0	?	7.9	7.56	?	?	?	8.56	14.9	?	?	?
20112019	9.5	?	19.96	8.99	19.96	12.9	12.95	10.95	?	?	6.0	9.96	5.99	?	?	?	7.9	?	?	7.9	7.0	?	?	?	?	?	?	?	?
21112019	9.5	15.99	19.96	8.99	21.9	16.99	12.95	10.95	3.5	?	4.0	9.96	5.99	8.0	?	?	9.96	3.0	?	6.0	7.0	?	?	?	?	?	?	?	?
22112019	9.5	13.99	19.96	8.99	18.96	16.99	12.95	10.95	3.5	?	4.0	9.96	5.99	6.96	?	?	9.96	3.0	?	6.0	7.0	?	?	?	?	?	?	?	?
23112019	9.5	13.99	19.96	7.99	19.9	16.99	8.95	10.95	3.0	?	4.0	9.96	5.99	6.96	?	?	?	3.0	?	5.0	7.0	?	?	?	?	?	6.55	?	?
24112019	9.5	13.99	19.96	7.99	19.9	16.99	8.95	10.95	3.0	?	4.0	9.96	5.99	6.96	?	?	?	3.0	?	5.0	7.0	?	?	?	?	?	6.55	?	?
27112019	7.99	?	19.96	7.99	19.9	15.99	9.95	10.95	3.5	5.9	4.96	9.96	?	6.96	?	4.5	9.96	3.0	?	5.96	5.9	?	?	?	8.56	12.99	?	?	?
28112019	7.99	11.9	19.96	7.99	19.9	12.95	9.95	10.95	3.5	6.5	4.96	10.9	?	5.9	?	5.98	9.96	3.0	4.6	5.96	5.9	?	?	?	8.56	12.99	?	?	?
04122019	7.99	11.9	?	7.99	19.9	12.95	8.95	10.95	4.0	?	?	10.0	?	6.96	?	5.55	8.5	3.0	4.9	7.56	6.3	?	?	?	8.56	13.99	6.55	3.91	?
05122019	9.95	12.9	?	6.95	19.9	15.99	8.95	10.95	4.0	?	4.0	10.0	?	6.96	?	3.95	8.5	3.0	4.9	4.96	6.3	?	?	?	8.56	13.99	6.55	4.99	?
10122019	8.99	12.9	19.96	6.95	19.9	15.99	9.95	10.95	3.56	6.0	6.0	10.0	5.95	?	?	6.95	7.5	3.0	4.9	5.96	?	?	?	5.9	8.56	?	?	?	7.95
